…
  .summary_vars <- purrr::map(.summary_vars, function(var) {
    expr(mean(!!var, na.rm = TRUE))
  })
  
  .data %>%
    group_by(!!!.group_vars) %>%
    summarise(n = n(), !!!.summary_vars)
}

grouped_mean3(.data = starwars, 
              .group_vars = vars(species, gender), 
              .summary_vars = vars(height))

# A tibble: 43 x 4
# Groups:   species [38]
   species  gender     n `mean(height, na.rm = TRUE)`
   <chr>    <chr>  <int>                        <dbl>
 1 NA       female     3                          137
 2 NA       male       2                          183
 3 Aleena   male       1                           79
 4 Besalisk male       1                          198
 5 Cerean   male       1                          198
 6 Chagrian male       1                          196
 7 Clawdite female     1                          168
 8 Droid    NA         3                          120
 9 Droid    none       2                          200
10 Dug      male       1                          112
# … with 33 more rows
```

`vars()`は名前も変更できます。

```R:R
grouped_mean3(.data = starwars, 
              .group_vars = vars(skin_color, gender, hair_color), 
              .summary_vars = vars(avg_height = height, avg_bod = birth_year))

# A tibble: 57 x 6
# Groups:   skin_color, gender [39]
   skin_color   gender hair_color     n avg_height avg_bod
   <chr>        <chr>  <chr>      <int>      <dbl>   <dbl>
 1 blue         female none           1        178      48
 2 blue         male   none           1        196     NaN
 3 blue, grey   male   black          1        137     NaN
 4 blue, grey   male   none           1         94     NaN
 5 brown        male   black          1        171     NaN
 6 brown        male   brown          2        161       8
 7 brown        male   none           1        198     NaN
 8 brown mottle male   none           1        180      41
 9 brown, white male   none           1        216     NaN
10 dark         female none           1        184     NaN
# … with 47 more rows
```
…
  .data %>%
    group_by(!!!.group_vars) %>%
    summarise(n = n(), 
              !!!.summary_vars)
}

grouped_mean3(.data = starwars, 
              .group_vars = vars(skin_color, gender, hair_color), 
              .summary_vars = vars(height, birth_year))

# A tibble: 57 x 6
# Groups:   skin_color, gender [39]
   skin_color   gender hair_color     n avg_height avg_birth_year
   <chr>        <chr>  <chr>      <int>      <dbl>          <dbl>
 1 blue         female none           1        178             48
 2 blue         male   none           1        196            NaN
 3 blue, grey   male   black          1        137            NaN
 4 blue, grey   male   none           1         94            NaN
 5 brown        male   black          1        171            NaN
 6 brown        male   brown          2        161              8
 7 brown        male   none           1        198            NaN
 8 brown mottle male   none           1        180             41
 9 brown, white male   none           1        216            NaN
10 dark         female none           1        184            NaN
# … with 47 more rows
```

もちろん、名前を付けることも可能です。

```R:R
grouped_mean3(.data = starwars, 
              .group_vars = vars(skin_color, gender, hair_color), 
              .summary_vars = vars(HHH = height, 
                                   BBB = birth_year,
                                   mass))

# A tibble: 57 x 7
# Groups:   skin_color, gender [39]
   skin_color   gender hair_color     n   HHH   BBB avg_mass
   <chr>        <chr>  <chr>      <int> <dbl> <dbl>    <dbl>
 1 blue         female none           1   178    48       55
 2 blue         male   none           1   196   NaN      NaN
 3 blue, grey   male   black          1   137   NaN      NaN
 4 blue, grey   male   none           1    94   NaN       45
 5 brown        male   black          1   171   NaN      NaN
 6 brown        male   brown          2   161     8       78
 7 brown        male   none           1   198   NaN      102
 8 brown mottle male   none           1   180    41       83
 9 brown, white male   none           1   216   NaN      159
10 dark         female none           1   184   NaN       50
# … with 47 more rows
```
…
