…
  # creating dataframes to be joined: one with tally, one with summary
  df_tally <- dplyr::tally(df)
  df_mean <- dplyr::summarise(df, mean = mean({{ x }}, na.rm = TRUE))

  # without specifying `by` argument, this works but prints a message I want to avoid
  #print(dplyr::left_join(x = df_tally, y = df_mean))

  # joining by specifying `by` argument (my failed attempt)
   dplyr::left_join(x = df_tally, y = df_mean, by = map_chr(group.by, rlang::as_string))

}

df_combiner(diamonds, carat, c(cut, clarity))
# A tibble: 40 x 4
# Groups:   cut [5]
#   cut   clarity     n  mean
#   <ord> <ord>   <int> <dbl>
# 1 Fair  I1        210 1.36 
# 2 Fair  SI2       466 1.20 
# 3 Fair  SI1       408 0.965
# 4 Fair  VS2       261 0.885
# 5 Fair  VS1       170 0.880
# 6 Fair  VVS2       69 0.692
# 7 Fair  VVS1       17 0.665
# 8 Fair  IF          9 0.474
# 9 Good  I1         96 1.20 
#10 Good  SI2      1081 1.04 
# … with 30 more rows
```
…
