…
- [Pivot data from wide to long](https://tidyr.tidyverse.org/reference/pivot_longer.html)
- [Pivoting](https://tidyr.tidyverse.org/dev/articles/pivot.html)
- [tidyr 1.0.0の新機能 pivot_*() / tidyr-pivot](https://speakerdeck.com/yutannihilation/tidyr-pivot)
- [雑訳vignette: Pivoting (tidyr 1.0.0)](https://blog.atusy.net/2019/06/29/pivoting-tidyr-1-0-0/)

## サンプルデータ
サンプルデータは[120 years of Olympic history: athletes and results](https://www.kaggle.com/heesoo37/120-years-of-olympic-history-athletes-and-results)のデータを利用する。内容はこんな感じ。120年分のオリンピックの参加した選手の基本情報がまとまっている。

```R:R
tmp <- read_csv("Olympic.csv")

tmp
# A tibble: 271,116 x 15
      ID Name             Sex      Age Height Weight Team       NOC   Games     Year Season City     Sport     Event                Medal
   <dbl> <chr>            <chr>  <dbl>  <dbl>  <dbl> <chr>      <chr> <chr>    <dbl> <chr>  <chr>    <chr>     <chr>                <chr>
 1     1 A Dijiang        Male      24    180     80 China      CHN   1992 Su…  1992 Summer Barcelo… Basketba… Basketball Men's Ba… NA   
 2     2 A Lamusi         Male      23    170     60 China      CHN   2012 Su…  2012 Summer London   Judo      Judo Men's Extra-Li… NA   
 3     3 Gunnar Nielsen … Male      24     NA     NA Denmark    DEN   1920 Su…  1920 Summer Antwerp… Football  Football Men's Foot… NA   
 4     4 Edgar Lindenau … Male      34     NA     NA Denmark/S… DEN   1900 Su…  1900 Summer Paris    Tug-Of-W… Tug-Of-War Men's Tu… Gold 
 5     5 Christine Jacob… Female    21    185     82 Netherlan… NED   1988 Wi…  1988 Winter Calgary  Speed Sk… Speed Skating Women… NA   
 6     5 Christine Jacob… Female    21    185     82 Netherlan… NED   1988 Wi…  1988 Winter Calgary  Speed Sk… Speed Skating Women… NA   
 7     5 Christine Jacob… Female    25    185     82 Netherlan… NED   1992 Wi…  1992 Winter Albertv… Speed Sk… Speed Skating Women… NA   
 8     5 Christine Jacob… Female    25    185     82 Netherlan… NED   1992 Wi…  1992 Winter Albertv… Speed Sk… Speed Skating Women… NA   
 9     5 Christine Jacob… Female    27    185     82 Netherlan… NED   1994 Wi…  1994 Winter Lilleha… Speed Sk… Speed Skating Women… NA   
10     5 Christine Jacob… Female    27    185     82 Netherlan… NED   1994 Wi…  1994 Winter Lilleha… Speed Sk… Speed Skating Women… NA   
# … with 271,106 more rows
…
## `pivot_longer()`
### Long型に変換する
`cols`で畳み込んで積み上げる範囲や列を選択し、`names_to`でその列名を指定し、`values_to`で値が格納される列名を指定する。

```R:R
df %>%
  pivot_longer(
    cols = Female_1900:Male_2016, 
    names_to = "Gender_Year", 
    values_to = "Is_join"
  )

# A tibble: 204 x 3
   Team          Gender_Year Is_join
   <chr>         <chr>         <dbl>
 1 Great Britain Female_1900       1
 2 Great Britain Female_1904      NA
 3 Great Britain Female_1908       1
 4 Great Britain Female_1912       1
 5 Great Britain Female_1920       1
 6 Great Britain Female_1924       1
 7 Great Britain Female_1928       1
 8 Great Britain Female_1932       1
 9 Great Britain Female_1936       1
10 Great Britain Female_1948       1
# … with 194 more rows
```
…
```R:R
df %>% 
  pivot_longer(
  cols = matches("^[FM]"), 
  names_to = "Gender_Year", 
  values_to = "Is_join"
)

# A tibble: 204 x 3
   Team          Gender_Year Is_join
   <chr>         <chr>         <dbl>
 1 Great Britain Female_1900       1
 2 Great Britain Female_1904      NA
 3 Great Britain Female_1908       1
 4 Great Britain Female_1912       1
 5 Great Britain Female_1920       1
 6 Great Britain Female_1924       1
 7 Great Britain Female_1928       1
 8 Great Britain Female_1932       1
 9 Great Britain Female_1936       1
10 Great Britain Female_1948       1
# … with 194 more rows
```
### 列の加工も同時に行う
`names_prefix `で削除したい文字列を指定し、`names_ptypes `で処理後のデータのタイプを指定する。

```R:R
df %>% 
  select(Team, starts_with("Female")) %>% 
  pivot_longer(
    cols = matches("^F"), 
    names_to = "Year",
    names_prefix = "Female_",
    names_ptypes = list(Year = integer()),
    values_to = "Is_join"
  )

# A tibble: 99 x 3
   Team           Year Is_join
   <chr>         <int>   <dbl>
 1 Great Britain  1900       1
 2 Great Britain  1904      NA
 3 Great Britain  1908       1
 4 Great Britain  1912       1
 5 Great Britain  1920       1
 6 Great Britain  1924       1
 7 Great Britain  1928       1
 8 Great Britain  1932       1
 9 Great Britain  1936       1
10 Great Britain  1948       1
# … with 89 more rows
```
### 列の分割を同時に行う
`names_pattern`で正規表現のグループ化を使えば、列を分割しながら変換ができる。

```R:R
df %>% 
  pivot_longer(
  cols = matches("^[FM]"), 
  names_to = c("Gender", "Year"),
  names_pattern = "(^[F|M]e?m?ale)",
  names_ptypes = list(Gender = character(),
                      Year   = integer()),
  values_to = "Is_join"
)

# A tibble: 204 x 4
   Team          Gender  Year Is_join
   <chr>         <chr>  <int>   <dbl>
 1 Great Britain Female  1900       1
 2 Great Britain Female  1904      NA
 3 Great Britain Female  1908       1
 4 Great Britain Female  1912       1
 5 Great Britain Female  1920       1
 6 Great Britain Female  1924       1
 7 Great Britain Female  1928       1
 8 Great Britain Female  1932       1
 9 Great Britain Female  1936       1
10 Great Britain Female  1948       1
# … with 194 more rows
```
…
```R:R
df %>% 
  pivot_longer(
  cols = matches("^[FM]"), 
  names_to = c("Gender", "Year"),
  names_pattern = "(^[F|M]e?m?ale)_(\\d*$)",
  names_ptypes = list(Gender = character(),
                      Year   = integer()),
  values_to = "Is_join",
  values_drop_na = TRUE
)

# A tibble: 188 x 4
   Team          Gender  Year Is_join
   <chr>         <chr>  <int>   <dbl>
 1 Great Britain Female  1900       1
 2 Great Britain Female  1908       1
 3 Great Britain Female  1912       1
 4 Great Britain Female  1920       1
 5 Great Britain Female  1924       1
 6 Great Britain Female  1928       1
 7 Great Britain Female  1932       1
 8 Great Britain Female  1936       1
 9 Great Britain Female  1948       1
10 Great Britain Female  1952       1
# … with 178 more rows
```
…
### 列を結合しながら変換する
列が分割されていても、Wide型に変換しながら、列の結合を行うことができる。

```R:R
df_long %>% 
    separate(Gender_Year, into = c("Gender", "Year"), sep = "_") # 列を分割する
# A tibble: 188 x 4
   Team          Gender Year  Is_join
   <chr>         <chr>  <chr>   <dbl>
 1 Great Britain Female 1900        1
 2 Great Britain Female 1908        1
 3 Great Britain Female 1912        1
 4 Great Britain Female 1920        1
 5 Great Britain Female 1924        1
 6 Great Britain Female 1928        1
 7 Great Britain Female 1932        1
 8 Great Britain Female 1936        1
 9 Great Britain Female 1948        1
10 Great Britain Female 1952        1
# … with 178 more rows
…
