WebアプリでABテストを実践する
…
それぞれのactivity_levelごとに何件のレコードがあるかを調べる。activity_levelは0から20までのレベルがあることがわかる。

activity_pretest %>% 
  group_by(activity_level) %>% 
  count() %>% 
  arrange(n)

## # A tibble: 21 × 2
## # Groups:   activity_level [21]
##    activity_level     n
##             <dbl> <int>
##  1             20 24520
##  2              7 48339
##  3             17 48395
##  4              8 48396
##  5             13 48534
##  6              4 48556
##  7             15 48599
##  8             14 48620
##  9              3 48659
## 10              1 48732
## # ℹ 11 more rows
…
メトリクスを計算する段階に移る。日次アクティブユーザーを計算する。useridが1日のactivity_levelが0でない場合に、日次アクティブユーザーとしてカウントされるとする。

activity <- activity_pretest %>%
  filter(activity_level > 0) %>%
  group_by(dt) %>%
  count() %>% 
  ungroup()
activity

## # A tibble: 31 × 2
##    dt             n
##    <date>     <int>
##  1 2021-10-01 30634
##  2 2021-10-02 30775
##  3 2021-10-03 30785
##  4 2021-10-04 30599
##  5 2021-10-05 30588
##  6 2021-10-06 30639
##  7 2021-10-07 30637
##  8 2021-10-08 30600
##  9 2021-10-09 30902
## 10 2021-10-10 30581
## # ℹ 21 more rows
…
activity_all %>% 
  group_by(groupid, dt) %>% 
    summarise(
    count = n(),
    mean = mean(activity_level),
    std = sd(activity_level),
    min = min(activity_level),
    `q25%` = quantile(activity_level, 0.25),
    `q50%` = quantile(activity_level, 0.50),
    `q75%` = quantile(activity_level, 0.75),
    max = max(activity_level)
  )

## # A tibble: 122 × 10
## # Groups:   groupid [2]
##    groupid dt         count  mean   std   min `q25%` `q50%` `q75%`   max
##      <dbl> <date>     <int> <dbl> <dbl> <dbl>  <dbl>  <dbl>  <dbl> <dbl>
##  1       0 2021-10-01 29951  5.24  6.52     0      0      1     10    20
##  2       0 2021-10-02 29951  5.26  6.51     0      0      1     10    20
##  3       0 2021-10-03 29951  5.27  6.51     0      0      1     10    20
##  4       0 2021-10-04 29951  5.21  6.51     0      0      1     10    20
##  5       0 2021-10-05 29951  5.18  6.51     0      0      1     10    20
##  6       0 2021-10-06 29951  5.22  6.50     0      0      1     10    20
##  7       0 2021-10-07 29951  5.26  6.52     0      0      1     10    20
##  8       0 2021-10-08 29951  5.29  6.55     0      0      1     11    20
##  9       0 2021-10-09 29951  5.22  6.49     0      0      1     10    20
## 10       0 2021-10-10 29951  5.24  6.53     0      0      1     11    20
## # ℹ 112 more rows

次に、ユーザーアクティビティを異なる視点から見る。ユーザーが1日に何回アクティブであるかではなく、その日に少なくとも1回アプリケーションにアクセスしたユーザーの数を調べる。このために、その日に少なくとも1回アクティブだったユーザーの数を計算する。

activity_all %>% 
  filter(activity_level > 0) %>% 
  group_by(dt, groupid) %>% 
  summarise(
    users = n_distinct(userid)
  )

## # A tibble: 122 × 3
## # Groups:   dt [61]
##    dt         groupid users
##    <date>       <dbl> <int>
##  1 2021-10-01       0 15337
##  2 2021-10-01       1 15297
##  3 2021-10-02       0 15354
##  4 2021-10-02       1 15421
##  5 2021-10-03       0 15423
##  6 2021-10-03       1 15362
##  7 2021-10-04       0 15211
##  8 2021-10-04       1 15388
##  9 2021-10-05       0 15126
## 10 2021-10-05       1 15462
## # ℹ 112 more rows
…
クリックスルー率の結果も確認する。

data_ctr <- read_csv("~/Desktop/ctr_all.csv")
data_ctr

## # A tibble: 2,303,408 × 4
##    userid                               dt         groupid   ctr
##    <chr>                                <date>       <dbl> <dbl>
##  1 60389fa7-2d71-4cdf-831c-c2bb277ffa1e 2021-11-13       0  31.8
##  2 b59cb225-d160-4851-92d2-7cc8120a2f63 2021-11-13       0  30.5
##  3 aa336050-934e-453f-a5b0-dd881fcd114e 2021-11-13       0  34.2
##  4 8df767f4-a10f-4322-a722-676b7e02b372 2021-11-13       0  34.9
##  5 a74762ed-4da0-42ab-91d2-40d7e808dfe9 2021-11-13       0  35.0
##  6 f29006ed-15ec-41d5-872e-885f9e75c558 2021-11-13       0  35.1
##  7 27cfe22e-f4b5-4c2e-9dd5-5b96eb062ca8 2021-11-13       0  31.5
##  8 0e8182a7-48d4-45af-a3b6-8caa8aa6eb5b 2021-11-13       0  34.3
##  9 c79f4b4c-2141-4c27-8934-7cc1ab411d49 2021-11-13       0  34.8
## 10 604a5580-8271-47e8-89dc-fa4b5fdf0c52 2021-11-13       0  30.7
## # ℹ 2,303,398 more rows
…
