…
# 顧客別時間行列(customer-by-time matrix)と顧客別初回/最終取引行列を使って、
# 顧客別十分統計量行列(customer-by-sufficient-statistic matrix)を作成。それに顧客別の平均売上を結合。
# pnbd.EstimateParameters()がtibbleに対応していないのでas.data.frame()
cal_cbs <- dc.BuildCBSFromCBTAndDates(cal_cbt, cal_cbs_dates, per = "week") %>%
  as.data.frame() %>% 
  dplyr::bind_cols(tibble(m.x = m.x))

cal_cbs %>% 
  head(10)

# # A tibble: 2,357 x 4
#        x   t.x T.cal   m.x
#    <dbl> <dbl> <dbl> <dbl>
#  1     2 30.4   38.9  24.7
#  2     1  1.71  38.9  30.3
#  3     0  0     38.9  21.6
#  4     0  0     38.9  15.0
#  5     0  0     38.9  38.8
#  6     7 29.4   38.9  11.8
#  7     1  5     38.9  63.8
#  8     0  0     38.9  27.9
#  9     2 35.7   38.9  21.6
# 10     0  0     38.9  14.4
# # … with 2,347 more rows
…
## 個人レベルの推定
# 上から、キャリブレーション期間の期待取引数、キャリブレーション期間終了時でのアクティブ確率、期待平均金額、期待LTV
df_ltv <-
  tibble::tibble(
    pnbd_expected_trans = pnbd.ConditionalExpectedTransactions(pnbd_params, T.star = 52, cal_cbs$x, cal_cbs$t.x, cal_cbs$T.cal),
    pnbd_prob_alive = pnbd.PAlive(pnbd_params, cal_cbs$x, cal_cbs$t.x, cal_cbs$T.cal),
    expected_trans_val = spend.expected.value(spend_params, cal_cbs$m.x, cal_cbs$x)
  ) %>%
  dplyr::mutate(pnbd_forecast_ltv = pnbd_expected_trans * pnbd_prob_alive * expected_trans_val)

df_ltv %>% slice(1516)
# # A tibble: 2,357 x 4
#    pnbd_expected_trans pnbd_prob_alive expected_trans_val pnbd_forecast_ltv
#                  <dbl>           <dbl>              <dbl>             <dbl>
#  1               1.85            0.869               24.7             39.7 
#  2               0.218           0.168               30.3              1.11
#  3               0.136           0.295               33.4              1.34
#  4               0.136           0.295               33.4              1.34
#  5               0.136           0.295               33.4              1.34
#  6               4.72            0.749               11.8             41.7 
#  7               0.331           0.255               63.8              5.38
#  8               0.136           0.295               33.4              1.34
#  9               2.04            0.959               21.6             42.4 
# 10               0.136           0.295               33.4              1.34
# # … with 2,347 more rows
```
