マルチレベルモデリングChapter4:モデルの妥当性
…
df_zeta <- tibble(
  id = unique(alcohol1$id),
  coa = alcohol1 %>% filter(age == 14) %>% pull(coa),
  peer = alcohol1 %>% filter(age == 14) %>% pull(peer),
  zeta0, 
  zeta0_std,
  zeta1,
  zeta1_std
)

list(df_eps, df_zeta)

## [[1]]
## # A tibble: 246 × 4
##       id   age resid_eps resid_eps_std
##    <int> <int>     <dbl>         <dbl>
##  1     1    14    0.266         0.575 
##  2     1    15    0.245         0.530 
##  3     1    16   -0.0444       -0.0962
##  4     2    14   -0.355        -0.768 
##  5     2    15   -0.580        -1.26  
##  6     2    16    0.195         0.423 
##  7     3    14   -0.177        -0.384 
##  8     3    15    0.0438        0.0949
##  9     3    16    0.581         1.26  
## 10     4    14   -1.08         -2.35  
## # … with 236 more rows
## 
## [[2]]
## # A tibble: 82 × 7
##       id   coa  peer  zeta0 zeta0_std   zeta1 zeta1_std
##    <int> <int> <dbl>  <dbl>     <dbl>   <dbl>     <dbl>
##  1     1     1 1.26   0.330     0.897  0.0558     0.202
##  2     2     1 0.894 -0.524    -1.43  -0.0644    -0.233
##  3     3     1 0.894  0.298     0.811  0.490      1.77 
##  4     4     1 1.79  -0.418    -1.14   0.198      0.717
##  5     5     1 0.894 -0.580    -1.58  -0.311     -1.12 
##  6     6     1 1.55   0.888     2.41   0.223      0.805
##  7     7     1 1.55   0.260     0.707 -0.175     -0.633
##  8     8     1 0     -0.272    -0.739 -0.278     -1.01 
##  9     9     1 0      0.109     0.297  0.633      2.29 
## 10    10     1 2     -0.400    -1.09  -0.179     -0.647
## # … with 72 more rows
…
