…
関数化すればよかったど。もういい。

```{r}
# # Get Demographic info
# demog <- tafeng %>%
#   dplyr::select(CustID, Age, Area) %>%
#   dplyr::distinct()
# 
# demog
# # A tibble: 32,266 x 3
#    CustID   Age   Area 
#    <chr>    <chr> <chr>
#  1 00046855 D     E    
#  2 00539166 E     E    
#  3 00663373 F     E    
#  4 00340625 A     E    
#  5 00236645 D     H    
#  6 01704129 B     E    
#  7 00841528 C     E    
#  8 00768566 K     E    
#  9 00217361 F     E    
# 10 02007052 D     E    
# # … with 32,256 more rows
# 
# # Get Useful tbl
# df_tmp <- tafeng %>%
#   dplyr::select(CustID, Time, SalesPrice) %>%
#   dplyr::mutate(
#     Time = as.Date(Time),
#     ym = str_c(lubridate::year(Time), str_pad(lubridate::month(Time), width = 2, pad = "0"), sep = "-")
#     ) %>%
#   dplyr::group_by(CustID, ym) %>%
#   dplyr::summarise(
#     Freq = n_distinct(Time),
#     SalesPrice = sum(SalesPrice, na.rm = TRUE),
#     LastPurchase = max(Time, na.rm = TRUE)
#   ) %>%
#   dplyr::select(CustID, ym, Freq, SalesPrice, LastPurchase) %>%
#   dplyr::ungroup()
# 
# df_tmp
# # A tibble: 65,696 x 5
#    CustID   ym       Freq SalesPrice LastPurchase
#    <chr>    <chr>   <int>      <int> <date>      
#  1 00001069 2000-11     1        187 2000-11-13  
#  2 00001069 2001-01     1        971 2001-01-21  
#  3 00001069 2001-02     2        786 2001-02-10  
#  4 00001113 2000-11     3       1602 2000-11-27  
#  5 00001113 2001-01     1        628 2001-01-06  
#  6 00001250 2001-02     2       1583 2001-02-10  
#  7 00001359 2000-12     1        364 2000-12-04  
#  8 00001823 2000-11     2       2174 2000-11-06  
#  9 00001823 2001-01     1        433 2001-01-24  
# 10 00002189 2000-12     1       9078 2000-12-02  
# # … with 65,686 more rows
# 
# # Get Useful tbl
# freq_M_w <- df_tmp %>%
#   dplyr::select(CustID, ym, Freq) %>%
#   tidyr::pivot_wider(
#     names_from = ym,
#     values_from = Freq,
#     values_fill = list(Freq = 0)
#   ) %>%
#   dplyr::select(CustID, order(names(.)))
# 
# freq_M_w
# # A tibble: 32,266 x 5
#    CustID   `2000-11` `2000-12` `2001-01` `2001-02`
#    <chr>        <int>     <int>     <int>     <int>
#  1 00001069         1         0         1         2
#  2 00001113         3         0         1         0
#  3 00001250         0         0         0         2
#  4 00001359         0         1         0         0
#  5 00001823         2         0         1         0
#  6 00002189         0         1         1         0
#  7 00003667         0         2         0         2
#  8 00004282         0         1         1         0
#  9 00004381         1         0         0         0
# 10 00004947         0         2         0         0
# # … with 32,256 more rows
# 
# money_M_w <- df_tmp %>%
#   dplyr::select(CustID, ym, SalesPrice) %>%
#   tidyr::pivot_wider(
#     names_from = ym,
#     values_from = SalesPrice,
#     values_fill = list(SalesPrice = 0)
#   ) %>%
#   dplyr::select(CustID, order(names(.)))
# 
# money_M_w
# # A tibble: 32,266 x 5
#    CustID   `2000-11` `2000-12` `2001-01` `2001-02`
#    <chr>        <int>     <int>     <int>     <int>
#  1 00001069       187         0       971       786
#  2 00001113      1602         0       628         0
#  3 00001250         0         0         0      1583
#  4 00001359         0       364         0         0
#  5 00001823      2174         0       433         0
#  6 00002189         0      9078      4978         0
#  7 00003667         0      9939         0      1570
#  8 00004282         0       171       796         0
#  9 00004381       701         0         0         0
# 10 00004947         0      3363         0         0
# # … with 32,256 more rows
# 
# recency_M_w <- df_tmp %>%
#   dplyr::select(CustID, ym, LastPurchase) %>%
#   mutate(LastPurchase = as.numeric(ymd(LastPurchase))) %>%
#   tidyr::pivot_wider(
#     names_from = ym,
#     values_from = LastPurchase,
#     values_fill = list(LastPurchase = NA)
#   ) %>%
#   dplyr::select(CustID, order(names(.)))
# 
# recency_M_w
# # A tibble: 32,266 x 5
#    CustID   `2000-11` `2000-12` `2001-01` `2001-02`
#    <chr>        <dbl>     <dbl>     <dbl>     <dbl>
#  1 00001069     11274        NA     11343     11363
#  2 00001113     11288        NA     11328        NA
#  3 00001250        NA        NA        NA     11363
#  4 00001359        NA     11295        NA        NA
#  5 00001823     11267        NA     11346        NA
#  6 00002189        NA     11293     11325        NA
#  7 00003667        NA     11317        NA     11361
#  8 00004282        NA     11306     11335        NA
#  9 00004381     11279        NA        NA        NA
# 10 00004947        NA     11301        NA        NA
# # … with 32,256 more rows
```
…
#   base::data.matrix() %>%
#   tidyr::as_tibble() %>% 
#   dplyr::mutate(Target = NA) %>% 
#   dplyr::bind_cols(df_freq %>% select(f_0))
# 
# xgb_df <- xgboost::xgb.DMatrix(data  = data %>% dplyr::select(-Target, -f_0) %>% as.matrix(), 
#                                label = data %>% dplyr::pull(Target))
# 
# xgb_pred <- as.numeric(predict(xgb_fit, xgb_df) > 0.5)
# 
# df_out <- data %>% 
#   mutate(Target = xgb_pred)
# 
# df_out
# # A tibble: 24,202 x 10
#      f_1   f_2   m_1   m_2   r_1   r_2   Age  Area Target f_0     
#    <dbl> <dbl> <dbl> <dbl> <dbl> <dbl> <dbl> <dbl>  <dbl> <chr>   
#  1     1     2   971   786    38    18    11     5      0 00001069
#  2     1     0   628     0    53    NA    11     6      0 00001113
#  3     0     2     0  1583    NA    18     4     4      0 00001250
#  4     1     0   433     0    35    NA    11     4      0 00001823
#  5     1     0  4978     0    56    NA    11     2      0 00002189
#  6     0     2     0  1570    NA    20    11     7      0 00003667
#  7     1     0   796     0    46    NA    10     5      0 00004282
#  8     0     1     0   553    NA    23     4     6      0 00004961
#  9     2     0  2445     0    37    NA    11     4      0 00004978
# 10     2     1  2756   315    43     9     4     6      1 00005241
# # … with 24,192 more rows
# 
# df_out %>% 
#   count(Target)
…
