回帰不連続デザイン
…
ここで使用するサンプルデータは、参考資料と同じく法定飲酒年齢の引き下げと21歳の誕生日付近の死亡者数に関する研究のデータ。

このデータにはMLDAが21歳の場合のみが含まれており、このデータの1レコードは「誕生日によって区切られた年齢グループ」とのことで、１レコードが19歳の誕生日からおよそ30日単位のブロックになっているデータ。

# data: http://masteringmetrics.com/wp-content/uploads/2015/01/AEJfigs.dta
# agecell: 19歳の誕生日からおよそ30日単位のブロック(0-30/31-60/61-90/...)のようなイメージ
# all: 死者数
df <- read_csv('~/Desktop/AEJfigs.csv', show_col_types = FALSE)
df

## # A tibble: 48 × 2
##    agecell   all
##      <dbl> <dbl>
##  1    19.1  92.8
##  2    19.2  95.1
##  3    19.2  92.1
##  4    19.3  88.4
##  5    19.4  88.7
##  6    19.5  90.2
##  7    19.6  96.2
##  8    19.6  89.6
##  9    19.7  93.4
## 10    19.8  90.9
## # … with 38 more rows
## # ℹ Use `print(n = ...)` to see more rows

回帰不連続デザインの解説で、(個人的に)よく見かける変数変換を行う。変数を中心化することで、基準値からのプラス・マイナスのズレで表現できる。

df <- df %>% 
  mutate(age = agecell - 21,  # 21歳が基準
         over = as.integer(agecell > 21), # 21歳以上を表す処置変数
         age_sq = age^2)
df

## # A tibble: 48 × 5
##    agecell   all   age  over age_sq
##      <dbl> <dbl> <dbl> <int>  <dbl>
##  1    19.1  92.8 -1.93     0   3.73
##  2    19.2  95.1 -1.85     0   3.42
##  3    19.2  92.1 -1.77     0   3.12
##  4    19.3  88.4 -1.68     0   2.84
##  5    19.4  88.7 -1.60     0   2.57
##  6    19.5  90.2 -1.52     0   2.31
##  7    19.6  96.2 -1.44     0   2.07
##  8    19.6  89.6 -1.36     0   1.84
##  9    19.7  93.4 -1.27     0   1.62
## 10    19.8  90.9 -1.19     0   1.42
## # … with 38 more rows
## # ℹ Use `print(n = ...)` to see more rows
…
