モンテカルロシュミレーションのまとめ
…
シュミレーション結果も合わせて可視化したいので、テーブルの構造をロング形式にしておく。

df_sim_ricker_long <- df_sim_ricker %>% 
  pivot_longer(
    cols = -year,
    names_to = 'sim',
    values_to = 'harvest'
  ) %>% 
  arrange(sim, year)
df_sim_ricker_long

## # A tibble: 5,000 × 3
##     year sim    harvest
##    <int> <chr>    <dbl>
##  1     1 sim1  4143800.
##  2     2 sim1  4009249.
##  3     3 sim1  3534653.
##  4     4 sim1  4086338.
##  5     5 sim1  3710142.
##  6     6 sim1  3968213.
##  7     7 sim1  3949324.
##  8     8 sim1  4011470.
##  9     9 sim1  3897416.
## 10    10 sim1  3800951.
## # ℹ 4,990 more rows
…
