時系列データの分析(arima.simと季節調整法)
…
df_plt <- 
  df %>% 
  dplyr::mutate(trend_air = ma(y, order = 12, centre = TRUE),
                detrend = y - trend_air) %>% 
  dplyr::group_by(m = lubridate::month(time)) %>% 
  dplyr::mutate(seasonal_air = mean(detrend, na.rm = TRUE),
                random_air = y - trend_air - seasonal_air,
                y_recomp = trend_air + seasonal_air + random_air) %>% 
  dplyr::select(time, y, trend_air, seasonal_air, random_air, y_recomp) %>% 
  dplyr::ungroup()

df_plt %>% 
  print(n = 24)

## # A tibble: 144 × 7
##        m time           y trend_air seasonal_air random_air y_recomp
##    <dbl> <date>     <dbl>     <dbl>        <dbl>      <dbl>    <dbl>
##  1     1 1949-01-01   112       NA        -25.5       NA          NA
##  2     2 1949-02-01   118       NA        -36.9       NA          NA
##  3     3 1949-03-01   132       NA         -2.99      NA          NA
##  4     4 1949-04-01   129       NA         -8.79      NA          NA
##  5     5 1949-05-01   121       NA         -5.26      NA          NA
##  6     6 1949-06-01   135       NA         34.7       NA          NA
##  7     7 1949-07-01   148      127.        63.1      -41.9       148
##  8     8 1949-08-01   148      127.        62.1      -41.3       148
##  9     9 1949-09-01   136      128.        15.8       -7.73      136
## 10    10 1949-10-01   119      129.       -21.4       11.8       119
## 11    11 1949-11-01   104      129        -54.3       29.3       104
## 12    12 1949-12-01   118      130.       -29.4       17.6       118
## 13     1 1950-01-01   115      131.       -25.5        9.25      115
## 14     2 1950-02-01   126      133.       -36.9       29.9       126
## 15     3 1950-03-01   141      135.        -2.99       9.08      141
## 16     4 1950-04-01   135      136.        -8.79       7.37      135
## 17     5 1950-05-01   125      137.        -5.26      -7.16      125
## 18     6 1950-06-01   149      139.        34.7      -24.4       149
## 19     7 1950-07-01   170      141.        63.1      -34.0       170
## 20     8 1950-08-01   170      143.        62.1      -35.2       170
## 21     9 1950-09-01   158      146.        15.8       -3.48      158
## 22    10 1950-10-01   133      148.       -21.4        5.98      133
## 23    11 1950-11-01   114      152.       -54.3       16.8       114
## 24    12 1950-12-01   140      155.       -29.4       14.7       140
## # … with 120 more rows
## # ℹ Use `print(n = ...)` to see more rows
…
