クロス集計からモンテカルロシュミレーションまで
…
df <- tibble(
  area = rep(c('tokyo', 'osaka'), times = c(n_tokyo, n_osaka)),
  is_like = like
)
df

## # A tibble: 300 × 2
##    area  is_like
##    <chr> <chr>  
##  1 tokyo Yes    
##  2 tokyo No     
##  3 tokyo Yes    
##  4 tokyo Yes    
##  5 tokyo No     
##  6 tokyo No     
##  7 tokyo No     
##  8 tokyo No     
##  9 tokyo No     
## 10 tokyo No     
## # ℹ 290 more rows
…
