マルチレベルモデリングChapter3
…
# simulation
set.seed(3)
mnorm <- MASS::mvrnorm(n = n, mu = mu, Sigma = sigma2)
zeta <- tibble(zeta_0 = mnorm[,1], zeta_1 = mnorm[,2])
gamma <- tibble(id = 1:n, gamma_00, gamma_01, gamma_10, gamma_11)
program <- tibble(program = rep(c(1,0), times = c(program_intervation, n - program_intervation)))

list(
  zeta = zeta,
  gamma = gamma
  )

## $zeta
## # A tibble: 103 × 2
##      zeta_0 zeta_1
##       <dbl>  <dbl>
##  1  10.5    -3.89 
##  2   2.91   -2.17 
##  3  -3.10    0.134
##  4  12.8    -4.05 
##  5  -1.52    2.89 
##  6  -0.0973  0.907
##  7  -1.12   -0.288
##  8 -12.3     4.23 
##  9  13.7    -3.69 
## 10 -14.0     4.67 
## # … with 93 more rows
## # ℹ Use `print(n = ...)` to see more rows
## 
## $gamma
## # A tibble: 103 × 5
##       id gamma_00 gamma_01 gamma_10 gamma_11
##    <int>    <dbl>    <dbl>    <dbl>    <dbl>
##  1     1     108.     6.85    -21.1     5.27
##  2     2     108.     6.85    -21.1     5.27
##  3     3     108.     6.85    -21.1     5.27
##  4     4     108.     6.85    -21.1     5.27
##  5     5     108.     6.85    -21.1     5.27
##  6     6     108.     6.85    -21.1     5.27
##  7     7     108.     6.85    -21.1     5.27
##  8     8     108.     6.85    -21.1     5.27
##  9     9     108.     6.85    -21.1     5.27
## 10    10     108.     6.85    -21.1     5.27
## # … with 93 more rows
## # ℹ Use `print(n = ...)` to see more rows
…
加えて、p47を参考に書籍のプロットを再現するために、下記を読み込んでおく。

early.int_plt <-
  tibble(id  = rep(c(68, 70:72, 902, 904, 906, 908), each = 3),
         age = rep(c(1, 1.5, 2), times = 8),
         cog = c(103, 119, 96, 106, 107, 96, 112, 86, 73, 100, 93, 87, 
                 119, 93, 99, 112, 98, 79, 89, 66, 81, 117, 90, 76),
         program = rep(1:0, each = 12))

print(early.int_plt)

## # A tibble: 24 × 4
##       id   age   cog program
##    <dbl> <dbl> <dbl>   <int>
##  1    68   1     103       1
##  2    68   1.5   119       1
##  3    68   2      96       1
##  4    70   1     106       1
##  5    70   1.5   107       1
##  6    70   2      96       1
##  7    71   1     112       1
##  8    71   1.5    86       1
##  9    71   2      73       1
## 10    72   1     100       1
## # … with 14 more rows
## # ℹ Use `print(n = ...)` to see more rows
…
実際の数値を計算しておく。for-loopでもよいが、ここではmapで計算する。

df_fit_by_id <- early.int %>% 
  group_by(id) %>% 
  nest() %>% 
  mutate(
    model = map(.x = data, .f = function(x){lm(cog ~ age_center, data = x)}),
    tidy  = map(.x = model, .f = function(x){tidy(x)}),
    glance = map(.x = model, .f = function(x){glance(x)})
  )
df_fit_by_id

## # A tibble: 103 × 5
## # Groups:   id [103]
##       id data             model  tidy             glance           
##    <int> <list>           <list> <list>           <list>           
##  1     1 <tibble [3 × 4]> <lm>   <tibble [2 × 5]> <tibble [1 × 12]>
##  2     2 <tibble [3 × 4]> <lm>   <tibble [2 × 5]> <tibble [1 × 12]>
##  3     3 <tibble [3 × 4]> <lm>   <tibble [2 × 5]> <tibble [1 × 12]>
##  4     4 <tibble [3 × 4]> <lm>   <tibble [2 × 5]> <tibble [1 × 12]>
##  5     5 <tibble [3 × 4]> <lm>   <tibble [2 × 5]> <tibble [1 × 12]>
##  6     6 <tibble [3 × 4]> <lm>   <tibble [2 × 5]> <tibble [1 × 12]>
##  7     7 <tibble [3 × 4]> <lm>   <tibble [2 × 5]> <tibble [1 × 12]>
##  8     8 <tibble [3 × 4]> <lm>   <tibble [2 × 5]> <tibble [1 × 12]>
##  9     9 <tibble [3 × 4]> <lm>   <tibble [2 × 5]> <tibble [1 × 12]>
## 10    10 <tibble [3 × 4]> <lm>   <tibble [2 × 5]> <tibble [1 × 12]>
## # … with 93 more rows
## # ℹ Use `print(n = ...)` to see more rows
…
