差分の差分法
…
ダミー変数と回帰モデル

01ダミー(2値ダミー)

差分の差分法を発展させると、ダミー変数などを取り込んだ回帰モデルがでてくるので、ダミー変数と回帰モデルのおさらいを行う。サンプルデータを用意する。何らかの時系列データである。ダミー変数の説明は下記を参考にしている。

44の例題で学ぶ計量経済学

d1 <- read_csv("~/Desktop/dummy1.csv")
d1

## # A tibble: 31 × 5
##     time     x     d     z     y
##    <dbl> <dbl> <dbl> <dbl> <dbl>
##  1  1981  2251     0  25.3 10204
##  2  1982  2230     0  25.8 10212
##  3  1983  2246     0  26.8 10308
##  4  1984  2290     0  27.3 11832
##  5  1985  2318     0  27.7 11613
##  6  1986  2280     0  26.3 11592
##  7  1987  2123     0  26.1 10571
##  8  1988  2087     0  26.2  9888
##  9  1989  2076     0  26.2 10297
## 10  1990  2055     0  27.5 10463
## # … with 21 more rows
## # ℹ Use `print(n = ...)` to see more rows
…
ここでは、2値ダミーを扱ったが、ダミー変数は多値(3種類以上のダミーはベースが必要)でもよいし、ダミー変数を組み合わせることも可能である。ただ、ダミー変数が行っていることは(係数ダミーを除く)、切片をコントロールして、ダミー変数の組み合わせ分の回帰直線を上下させているといえる。

四半期ダミー

時系列データの分析では四半期ダミーが使われることが多い。ここでは、四半期ダミーを含むデータを用意する。x,yは対数である。

d2 <- read_csv("~/Desktop/dummy2.csv")
d2

## # A tibble: 48 × 8
##     time quater     y     x    q1    q2    q3 trend
##    <dbl> <chr>  <dbl> <dbl> <dbl> <dbl> <dbl> <dbl>
##  1  2000 q1      9.81  11.7     1     0     0     1
##  2  2000 q2      9.56  11.7     0     1     0     2
##  3  2000 q3      9.72  11.7     0     0     1     3
##  4  2000 q4      9.66  11.7     0     0     0     4
##  5  2001 q1      9.82  11.7     1     0     0     5
##  6  2001 q2      9.61  11.7     0     1     0     6
##  7  2001 q3      9.72  11.7     0     0     1     7
##  8  2001 q4      9.57  11.7     0     0     0     8
##  9  2002 q1      9.74  11.7     1     0     0     9
## 10  2002 q2      9.52  11.7     0     1     0    10
## # … with 38 more rows
## # ℹ Use `print(n = ...)` to see more rows
…
R2 Adj.

0.888

時間ダミー

次は時間ダミーについてまとめておく。9県×3期間の合計27レコードがある。時系列としては3地点、クロスセクションとしては9県のデータ。

年次を見ると1999, 2004, 2009は3つのカテゴリーもっているので、これは時間ダミーとして利用できる。

d3 <- read_csv("~/Desktop/dummy3.csv")
d3

## # A tibble: 27 × 10
##        i pref      prefno  time     x     y   lny   lnx d2004 d2009
##    <dbl> <chr>      <dbl> <dbl> <dbl> <dbl> <dbl> <dbl> <dbl> <dbl>
##  1     1 tottori        1  1999   331  2166  7.68  5.80     0     0
##  2     2 shimane        2  1999   401  2575  7.85  5.99     0     0
##  3     3 okayama        3  1999   973  7410  8.91  6.88     0     0
##  4     4 hiroshima      4  1999  1481 11237  9.33  7.3      0     0
##  5     5 yamaguchi      5  1999   764  5662  8.64  6.64     0     0
##  6     6 tokushima      6  1999   405  2751  7.92  6.00     0     0
##  7     7 kagawa         7  1999   533  3714  8.22  6.28     0     0
##  8     8 ehime          8  1999   767  5114  8.54  6.64     0     0
##  9     9 kochi          9  1999   404  2474  7.81  6.00     0     0
## 10    10 tottori        1  2004   311  2319  7.75  5.74     1     0
## # … with 17 more rows
## # ℹ Use `print(n = ...)` to see more rows
…
# fulltime_before:最低時給上昇前のフルタイム労働者の数
# parttime_before:最低時給上昇前のパートタイム労働者の数
# wage_before    :最低時給上昇前の賃金
# fulltime_after :最低時給上昇後のフルタイム労働者の数
# parttime_after :最低時給上昇後のパートタイム労働者の数
# wage_after     :最低時給上昇後の賃金
# full_prop_before = fulltime_before / (fulltime_before + parttime_before),
# full_prop_after  = fulltime_after  / (fulltime_after + parttime_after)
df <- read_csv("~/Desktop/public_mini.csv")
df

## # A tibble: 358 × 9
##    state fulltime_before partt…¹ wage_…² fullt…³ partt…⁴ wage_…⁵ full_…⁶ full_…⁷
##    <chr>           <dbl>   <dbl>   <dbl>   <dbl>   <dbl>   <dbl>   <dbl>   <dbl>
##  1 PA               20        20    5          0      36    5.25   0.5    0     
##  2 PA                6        26    5.5       28       3    4.75   0.188  0.903 
##  3 PA               50        35    5         15      18    4.75   0.588  0.455 
##  4 PA               10        17    5         26       9    5      0.370  0.743 
##  5 PA                2         8    5.25       3      12    5      0.2    0.2   
##  6 PA                2        10    5          2       9    5      0.167  0.182 
##  7 PA                2.5      20    5          1      25    4.75   0.111  0.0385
##  8 PA               40        30    5          9      32    5      0.571  0.220 
##  9 PA                8        27    5          7      39    4.5    0.229  0.152 
## 10 PA               10.5      30    5.5       18      10    4.75   0.259  0.643 
## # … with 348 more rows, and abbreviated variable names ¹​parttime_before,
## #   ²​wage_before, ³​fulltime_after, ⁴​parttime_after, ⁵​wage_after,
## #   ⁶​full_prop_before, ⁷​full_prop_after
## # ℹ Use `print(n = ...)` to see more rows
…
