複数のprophetでクロスバリデーションしながら複数モデルを比較する
…
長ったらしいタイトルそのままだが、prophetパッケージのprophet()でローリングオリジン法でクロスバリデーションしながら複数モデルを比較する方法についての自分用のまとめ。

1.1
ローリングオリジン法

ローリングオリジン法の説明に前にとりあえずサンプルデータ。

n <- 24
set.seed(1989)
df <- tibble::tibble(ds = seq(from = as.Date("2010-01-01"), by = "1 month", length.out = n),
                     y = rnorm(n, 100, 1),
                     id = 1:n)

df
# A tibble: 24 x 3
   ds             y    id
   <date>     <dbl> <int>
 1 2010-01-01 101.      1
 2 2010-02-01 101.      2
 3 2010-03-01  98.2     3
 4 2010-04-01  99.8     4
 5 2010-05-01  99.4     5
 6 2010-06-01  99.7     6
 7 2010-07-01 100.      7
 8 2010-08-01 101.      8
 9 2010-09-01 100.      9
10 2010-10-01  99.3    10
# … with 14 more rows
…
