分割時系列デザイン
…
まずはデータを用意しておく。

library(tidyverse)

df <- tibble(
    t = c(0, 1, 2, 3, 4, 5, 6, 7, 8, 9, 10, 11, 12, 13, 14, 15, 16, 17, 18, 19, 20, 21, 22, 23),
    x_t =  c(0, 0, 0, 0, 0, 0, 0, 0, 0, 0, 0, 0, 1, 1, 1, 1, 1, 1, 1, 1, 1, 1, 1, 1),
    `x(t-ti)` = c(0, 0, 0, 0, 0, 0, 0, 0, 0, 0, 0, 0, 0, 1, 2, 3, 4, 5, 6, 7, 8, 9, 10, 11),
    y = c(2030, 2201, 2100, 2000, 2035, 2343, 2854, 2400, 2748, 2443, 2600, 3194, 1506, 1340, 1456, 1256, 1345, 1100, 1304, 1405, 1245, 852, 1200, 840)
)

df

## # A tibble: 24 × 4
##        t   x_t `x(t-ti)`     y
##    <dbl> <dbl>     <dbl> <dbl>
##  1     0     0         0  2030
##  2     1     0         0  2201
##  3     2     0         0  2100
##  4     3     0         0  2000
##  5     4     0         0  2035
##  6     5     0         0  2343
##  7     6     0         0  2854
##  8     7     0         0  2400
##  9     8     0         0  2748
## 10     9     0         0  2443
## # ℹ 14 more rows
…
加工済みのテーブルはこちら。

df$`t(1-xt)` <- df$t * (1 - df$x_t)
df$`t*xt` <- df$t * df$x_t
df

## # A tibble: 24 × 6
##        t   x_t `x(t-ti)`     y `t(1-xt)` `t*xt`
##    <dbl> <dbl>     <dbl> <dbl>     <dbl>  <dbl>
##  1     0     0         0  2030         0      0
##  2     1     0         0  2201         1      0
##  3     2     0         0  2100         2      0
##  4     3     0         0  2000         3      0
##  5     4     0         0  2035         4      0
##  6     5     0         0  2343         5      0
##  7     6     0         0  2854         6      0
##  8     7     0         0  2400         7      0
##  9     8     0         0  2748         8      0
## 10     9     0         0  2443         9      0
## # ℹ 14 more rows
…
# 半事実のデータを作成
cf <- df
cf$x_t <- 0
cf$`x(t-ti)` <- 0
prediction_cf <- predict(fit, newdata = cf, interval = "confidence", se.fit = TRUE)
df$pred_cf <- prediction_cf$fit
df$lower_cf <- prediction_cf$fit - 1.96 * prediction_cf$se.fit  # 95% 信頼区間の下限
df$upper_cf <- prediction_cf$fit + 1.96 * prediction_cf$se.fit  # 95% 信頼区間の上限

df

## # A tibble: 24 × 12
##        t   x_t `x(t-ti)`     y `t(1-xt)` `t*xt`  pred lower upper pred_cf
##    <dbl> <dbl>     <dbl> <dbl>     <dbl>  <dbl> <dbl> <dbl> <dbl>   <dbl>
##  1     0     0         0  2030         0      0 1948. 1739. 2157.   1948.
##  2     1     0         0  2201         1      0 2032. 1850. 2215.   2032.
##  3     2     0         0  2100         2      0 2117. 1959. 2275.   2117.
##  4     3     0         0  2000         3      0 2201. 2064. 2338.   2201.
##  5     4     0         0  2035         4      0 2286. 2165. 2407.   2286.
##  6     5     0         0  2343         5      0 2370. 2258. 2482.   2370.
##  7     6     0         0  2854         6      0 2455. 2342. 2567.   2455.
##  8     7     0         0  2400         7      0 2539. 2418. 2660.   2539.
##  9     8     0         0  2748         8      0 2623. 2486. 2761.   2623.
## 10     9     0         0  2443         9      0 2708. 2550. 2866.   2708.
## # ℹ 14 more rows
## # ℹ 2 more variables: lower_cf <dbl>, upper_cf <dbl>
…
