傾向スコアと生存分析
…
# ptid: 患者ID
# swang1: 1 is RHC, 0 is NoRHC
# dth30.num: 1 is death in 30days, 0 is alive
# t3d30: died x days entring ICU
# aps1: 集中治療開始時の重篤度スコア
# alb1: 集中治療開始時のアルブミン値
# resp1: 集中治療開始時の呼吸数
# hrt1: 集中治療開始時の心拍数

df <- read_csv('~/Desktop/rhc651.csv', show_col_types = FALSE) %>% 
  select(ptid, swang1, dth30.num, t3d30, age, aps1, alb1, resp1, hrt1)
df

## # A tibble: 651 × 9
##     ptid swang1 dth30.num t3d30   age  aps1  alb1 resp1  hrt1
##    <dbl>  <dbl>     <dbl> <dbl> <dbl> <dbl> <dbl> <dbl> <dbl>
##  1     1      0         1    23  60.3    56  2       28   124
##  2     2      1         1    11  66.1    84  2       28   164
##  3     3      1         1    19  72.7    41  2.40    15   135
##  4     4      0         0    30  84.4    43  3.5     10    62
##  5     5      0         0    30  72.3    61  2       47   144
##  6     6      0         0    30  65.1    43  3.5     24    66
##  7     7      0         0    30  77.1    50  3.10    40    60
##  8     8      1         1     3  36.7    74  3.5     14   145
##  9     9      0         0    30  73.0    57  3.5     30   138
## 10    10      1         0    30  41.3    79  3.20    36   120
## # … with 641 more rows
## # ℹ Use `print(n = ...)` to see more rows
…
