マルチレベルモデリングChapter2
…
# median(tolerance$exposure) [1] 1.145
tolerance.pp

## # A tibble: 80 × 8
## # Groups:   id [16]
##       id   age tolerance  male exposure  time age_center exposure_highlow
##    <int> <int>     <dbl> <int>    <dbl> <int>      <dbl> <chr>           
##  1     9    11      2.23     0     1.54     1          0 High            
##  2     9    12      1.79     0     1.54     2          1 High            
##  3     9    13      1.9      0     1.54     3          2 High            
##  4     9    14      2.12     0     1.54     4          3 High            
##  5     9    15      2.66     0     1.54     5          4 High            
##  6    45    11      1.12     1     1.16     1          0 High            
##  7    45    12      1.45     1     1.16     2          1 High            
##  8    45    13      1.45     1     1.16     3          2 High            
##  9    45    14      1.45     1     1.16     4          3 High            
## 10    45    15      1.99     1     1.16     5          4 High            
## # … with 70 more rows
## # ℹ Use `print(n = ...)` to see more rows
…
