…
df_dtm <- as(as.matrix(df_dtm), "CsparseMatrix")

df_lda <- LDA(df_dtm, k = 10, control = list(seed = 1234))
df_lda
A LDA_VEM topic model with 10 topics.

```
文書-トピック確率を見てみます。これは、文書をトピックの組み合わせとしてモデリングしているようなものです。`tidy()`でmatrix="gamma"を指定することで確認できます。この例であれば、文書1(=document1)がトピック1に属する確率は6%であることがわかります。

```R:R
tidy(df_lda, matrix = "gamma")
# A tibble: 55,720 x 3
   document topic   gamma
   <chr>    <int>   <dbl>
 1 1            1 0.0665 
 2 2            1 0.0169 
 3 3            1 0.00367
 4 4            1 0.00999
 5 5            1 0.00859
 6 6            1 0.00368
 7 7            1 0.129  
 8 8            1 0.00448
 9 9            1 0.00448
10 10           1 0.00404
# … with 55,710 more rows
```
…
こんな感じでトピック数を指定して、文書が各トピックにどれくらいの確率で所属するかを特徴量とすることもできる。

```R:R
future <- tidy(df_lda, matrix = "gamma") %>%
  spread(key = topic, value = gamma) %>% 
  mutate(document = as.numeric(document)) %>% 
  arrange(document) %>% 
  select(-document) %>% 
  set_names(., paste0("topic", 1:ncol(.))) %>% 
  mutate(id = row_number())

future
# A tibble: 5,572 x 11
    topic1  topic2  topic3  topic4  topic5  topic6  topic7  topic8  topic9 topic10    id
     <dbl>   <dbl>   <dbl>   <dbl>   <dbl>   <dbl>   <dbl>   <dbl>   <dbl>   <dbl> <int>
 1 0.0665  0.00576 0.00575 0.00575 0.00575 0.692   0.00575 0.201   0.00576 0.00575     1
 2 0.0169  0.0169  0.155   0.0169  0.0169  0.709   0.0169  0.0169  0.0169  0.0169      2
 3 0.00367 0.00367 0.00368 0.00368 0.925   0.00367 0.00367 0.0457  0.00367 0.00368     3
 4 0.00999 0.00999 0.207   0.00998 0.00998 0.713   0.00999 0.00998 0.00998 0.00998     4
 5 0.00859 0.422   0.00858 0.00858 0.00858 0.00858 0.421   0.0965  0.00859 0.00858     5
 6 0.00368 0.331   0.00368 0.247   0.127   0.0643  0.212   0.00368 0.00368 0.00368     6
 7 0.129   0.00709 0.00710 0.00709 0.00709 0.00709 0.296   0.00710 0.438   0.0951      7
 8 0.00448 0.00448 0.00448 0.00449 0.00448 0.498   0.00448 0.00449 0.00448 0.466       8
 9 0.00448 0.00448 0.00448 0.00449 0.387   0.00448 0.00448 0.00448 0.00448 0.577       9
10 0.00404 0.00404 0.0729  0.895   0.00404 0.00404 0.00404 0.00404 0.00404 0.00404    10
# … with 5,562 more rows
```
…
```R:R
head(train_df)
# A tibble: 6 x 3
  y     texts                                                                                                        id
  <fct> <chr>                                                                                                     <int>
1 ham   Go until jurong point, crazy.. Available only in bugis n great world la e buffet... Cine there got amore…     1
2 ham   Ok lar... Joking wif u oni...                                                                                 2
3 spam  Free entry in 2 a wkly comp to win FA Cup final tkts 21st May 2005. Text FA to 87121 to receive entry qu…     3
4 ham   U dun say so early hor... U c already then say...                                                             4
5 ham   Nah I don't think he goes to usf, he lives around here though                                                 5
6 spam  "FreeMsg Hey there darling it's been 3 week's now and no word back! I'd like some fun you up for it stil…     6

train_df %>% 
     unnest_tokens(word, texts)
# A tibble: 78,366 x 3
   y        id word     
   <fct> <int> <chr>    
 1 ham       1 go       
 2 ham       1 until    
 3 ham       1 jurong   
 4 ham       1 point    
 5 ham       1 crazy    
 6 ham       1 available
 7 ham       1 only     
 8 ham       1 in       
 9 ham       1 bugis    
10 ham       1 n        
# … with 78,356 more rows
```
…
`tidy()`をDTMに適用すればunnest形式に戻せますが、頻度が0のものは削除されているので注意が必要です。

```R:R
train_df_dtm <- train_df %>% 
  mutate(texts = if_else(texts %in% c(":-) :-)", ":)"), "NA", as.character(texts))) %>% 
  unnest_tokens(word, texts) %>% 
  count(id, word) %>% 
  cast_dtm(document = id, term = word, value = n) %>% 
  tidy()

train_df_dtm
# A tibble: 71,544 x 3
   document term      count
   <chr>    <chr>     <dbl>
 1 1        amore         1
 2 1        available     1
 3 234      available     1
 4 385      available     1
 5 435      available     1
 6 463      available     1
 7 1051     available     1
 8 1384     available     1
 9 1866     available     1
10 2116     available     1
# … with 71,534 more rows
```
…
