傾向スコアの基礎
…
# sequela_y:退院時後遺症(0/1) 
# adl_y: 退院時ADLスコア(0-100)
# treat: 治療薬の処置(0/1)
# sex: 男性=1
# age: 年齢
# ht: 高血圧(0/1)
# dm: 糖尿病(0/1)
# stroke: 脳卒中の既往(0/1)
# mi: 心筋梗塞の既往(0/1)
df <- read_csv('~/Desktop/PSbook_data.csv', show_col_types = FALSE, locale = locale(encoding = "shift-jis")) %>% 
  select(id,  sequela_y = sequela, adl_y = ADL_disc, treat = TreatmentX, sex, age = Age, ht = HT, dm = DM, stroke = Stroke, mi = MI) %>% 
  mutate(sex = if_else(sex == '男', 1, 0))
df

## # A tibble: 15,000 × 10
##       id sequela_y adl_y treat   sex   age    ht    dm stroke    mi
##    <dbl>     <dbl> <dbl> <dbl> <dbl> <dbl> <dbl> <dbl>  <dbl> <dbl>
##  1     1         0    45     0     1    74     0     0      0     0
##  2     2         1    40     0     0    73     1     0      0     1
##  3     3         0    40     0     1    75     0     0      0     0
##  4     4         0    40     0     1    76     0     0      0     0
##  5     5         0    40     0     0    80     0     0      0     0
##  6     6         0    40     0     1    76     0     0      0     0
##  7     7         0    40     0     0    74     0     0      0     0
##  8     8         0    40     0     0    78     0     0      0     0
##  9     9         0    45     0     0    72     0     0      0     0
## 10    10         0    45     1     0    75     0     0      0     0
## # … with 14,990 more rows
…
\[
w_{i}^{ATE} = \frac{Z_{i}}{e_{i}(X)} + \frac{(1 - Z_{i}) }{1 - e_{i}(X)}
\]

ATTとATEの重みを計算する場合は下記の通り。処置と対照に合わせて傾向スコアを利用する。

df_weight <- df %>% 
  mutate(
    weight_att = if_else(treat == 1, 1   , ps/(1-ps)),
    weight_ate = if_else(treat == 1, 1/ps, 1/(1-ps))
    )
df_weight %>% 
  select(treat, ps, weight_att, weight_ate)

## # A tibble: 15,000 × 4
##    treat    ps weight_att weight_ate
##    <dbl> <dbl>      <dbl>      <dbl>
##  1     0 0.220      0.283       1.28
##  2     0 0.266      0.362       1.36
##  3     0 0.263      0.358       1.36
##  4     0 0.312      0.453       1.45
##  5     0 0.537      1.16        2.16
##  6     0 0.312      0.453       1.45
##  7     0 0.220      0.282       1.28
##  8     0 0.420      0.723       1.72
##  9     0 0.150      0.176       1.18
## 10     1 0.263      1           3.80
## # … with 14,990 more rows
…
