DID回帰モデル
…
library(bacondecomp)
library(tidyverse)
library(haven)
library(lfe)

read_data <- function(df){
  full_path <- paste("https://github.com/scunning1975/mixtape/raw/master/", df, sep = "")
  df <- read_dta(full_path)
  return(df)
}
castle <- read_data("castle.dta")
castle

## # A tibble: 550 × 185
##    state  year   sid   cdl pre2_cdl caselaw anywhere assumption civil homicide_c
##    <chr> <dbl> <dbl> <dbl>    <dbl>   <dbl>    <dbl>      <dbl> <dbl>      <dbl>
##  1 Alab…  2000     1 0            0       0        0          0     0        329
##  2 Alab…  2001     1 0            0       0        0          0     0        379
##  3 Alab…  2002     1 0            0       0        0          0     0        303
##  4 Alab…  2003     1 0            0       0        0          0     0        299
##  5 Alab…  2004     1 0            1       0        0          0     0        254
##  6 Alab…  2005     1 0            1       0        0          0     0        374
##  7 Alab…  2006     1 0.581        0       0        1          0     1        368
##  8 Alab…  2007     1 1            0       0        1          0     1        392
##  9 Alab…  2008     1 1            0       0        1          0     1        357
## 10 Alab…  2009     1 1            0       0        1          0     1        322
## # ℹ 540 more rows
## # ℹ 175 more variables: robbery_gun_r <dbl>, jhcitizen_c <dbl>,
## #   jhpolice_c <dbl>, homicide <dbl>, robbery <dbl>, assault <dbl>,
## #   burglary <dbl>, larceny <dbl>, motor <dbl>, murder <dbl>,
## #   hc_felonywsus <dbl>, jhcitizen <dbl>, jhpolice <dbl>, population <dbl>,
## #   police <dbl>, unemployrt <dbl>, income <dbl>, blackm_15_24 <dbl>,
## #   whitem_15_24 <dbl>, blackm_25_44 <dbl>, whitem_25_44 <dbl>, …
…
