StanとRでベイズ統計モデリング04
…
基本的には気になった部分を写経しながら、ところどころ自分用の補足をメモすることで、「StanとRでベイズ統計モデリング」を読み進めるための自分用の補足資料になることを目指す。私の解釈がおかしく、メモが誤っている場合があるので注意。

今回は少し寄り道をして、緑本でおなじみ「データ解析のための統計モデリング入門」の第10章を写経していく。次回以降、「StanとRでベイズ統計モデリング」では階層ベイズモデルのチャプターに突入するので、「データ解析のための統計モデリング入門」の階層ベイズモデルも合わせて学習しておきたい。

10.1 例題：個体差と生存種子数(個体差あり)

ここで使用するデータは架空の植物の種子の生存確率のデータ。調査個体数は\(n=100\)で、各固体から8個の種子を取り出し、生存している種子数\(y_{i}\)を記録している。つまり、各個体\(i\)のデータは「8個の種子のうち\(y_{i}\)個がパラメタ\(q_{i}\)の確率で生存」しており、各個体は独立に生成されると仮定する。

library(tidyverse)
library(rstan)

d <- read_csv('~/Desktop/data7a.csv')
d

## # A tibble: 100 × 2
##       id     y
##    <dbl> <dbl>
##  1     1     0
##  2     2     2
##  3     3     7
##  4     4     8
##  5     5     1
##  6     6     7
##  7     7     8
##  8     8     8
##  9     9     1
## 10    10     1
## # ℹ 90 more rows
…
